Point Index,Action Name,Time (sample)(s),Time (sequence)(s),Time (action)(s),Experiment Name,Temperature(°C),Shear strain(%),Shear rate(s-¹),Shear stress(Pa),Shear viscosity(Pa s),Steady state,Angular displacement(rad),Angular velocity(rad/s),Normal force(N),Point Notes
1,Shear stress ramp up,3.479E+003,297.7,10.00,AFCC_andput_PreconditionedStressRamp (3),49.41,-3.62435,2.156E-003,2.984E-003,1.384,0.5948,-3.624E-004,-2.156E-005,-0.1249,
2,Shear stress ramp up,3.481E+003,299.4,11.67,AFCC_andput_PreconditionedStressRamp (3),49.41,-3.83628,3.457E-003,3.002E-003,0.8683,3.032,-3.836E-004,-3.457E-005,-0.1258,
3,Shear stress ramp up,3.483E+003,301.0,13.32,AFCC_andput_PreconditionedStressRamp (3),49.41,-3.92124,4.604E-003,3.058E-003,0.6642,5.556,-3.921E-004,-4.604E-005,-0.1258,
4,Shear stress ramp up,3.484E+003,302.7,14.96,AFCC_andput_PreconditionedStressRamp (3),49.42,-4.08309,5.076E-003,3.154E-003,0.6214,5.766,-4.083E-004,-5.076E-005,-0.1244,
5,Shear stress ramp up,3.486E+003,304.3,16.61,AFCC_andput_PreconditionedStressRamp (3),49.43,-4.03476,4.647E-003,3.294E-003,0.7087,7.921,-4.035E-004,-4.647E-005,-0.1262,
6,Shear stress ramp up,3.488E+003,305.9,18.25,AFCC_andput_PreconditionedStressRamp (3),49.45,-3.68099,3.207E-003,3.480E-003,1.085,81.95,-3.681E-004,-3.207E-005,-0.1451,
7,Shear stress ramp up,3.489E+003,307.6,19.90,AFCC_andput_PreconditionedStressRamp (3),49.46,-4.25715,6.958E-004,3.717E-003,5.342,1.129,-4.257E-004,-6.958E-006,-0.1250,
8,Shear stress ramp up,3.491E+003,309.2,21.54,AFCC_andput_PreconditionedStressRamp (3),49.48,-4.22496,4.122E-004,3.992E-003,9.686,0.8235,-4.225E-004,-4.122E-006,-0.1249,
9,Shear stress ramp up,3.492E+003,310.9,23.19,AFCC_andput_PreconditionedStressRamp (3),49.50,-4.17902,2.401E-004,4.288E-003,17.86,0.5957,-4.179E-004,-2.401E-006,-0.1222,
10,Shear stress ramp up,3.494E+003,312.5,24.83,AFCC_andput_PreconditionedStressRamp (3),49.52,-4.14466,1.449E-004,4.606E-003,31.80,0.4324,-4.145E-004,-1.449E-006,-0.1240,
11,Shear stress ramp up,3.496E+003,314.2,26.48,AFCC_andput_PreconditionedStressRamp (3),49.55,-4.20410,5.697E-005,4.947E-003,86.84,0.1687,-4.204E-004,-5.697E-007,-0.1220,
12,Shear stress ramp up,3.497E+003,315.8,28.12,AFCC_andput_PreconditionedStressRamp (3),49.57,-4.16189,8.184E-005,5.314E-003,64.93,0.2886,-4.162E-004,-8.184E-007,-0.1239,
13,Shear stress ramp up,3.499E+003,317.5,29.77,AFCC_andput_PreconditionedStressRamp (3),49.60,-4.16868,8.436E-005,5.708E-003,67.66,-0.3203,-4.169E-004,8.436E-007,-0.1238,
14,Shear stress ramp up,3.501E+003,319.1,31.41,AFCC_andput_PreconditionedStressRamp (3),49.62,-3.73625,3.199E-005,6.131E-003,191.7,0.7821,-3.736E-004,-3.199E-007,-0.1471,
15,Shear stress ramp up,3.502E+003,320.8,33.06,AFCC_andput_PreconditionedStressRamp (3),49.65,-4.19974,1.452E-004,6.586E-003,45.36,-0.6068,-4.200E-004,1.452E-006,-0.1247,
16,Shear stress ramp up,3.504E+003,322.4,34.70,AFCC_andput_PreconditionedStressRamp (3),49.68,-3.52661,1.702E-004,7.074E-003,41.57,3.435,-3.527E-004,1.702E-006,-0.1409,
17,Shear stress ramp up,3.506E+003,324.0,36.34,AFCC_andput_PreconditionedStressRamp (3),49.71,-4.05450,2.521E-004,7.598E-003,30.13,-1.635,-4.054E-004,2.521E-006,-0.1250,
18,Shear stress ramp up,3.507E+003,325.7,37.99,AFCC_andput_PreconditionedStressRamp (3),49.74,-3.97974,2.607E-004,8.161E-003,31.31,-2.203,-3.980E-004,2.607E-006,-0.1173,
19,Shear stress ramp up,3.509E+003,327.3,39.63,AFCC_andput_PreconditionedStressRamp (3),49.77,-3.94591,2.476E-004,8.766E-003,35.40,-2.468,-3.946E-004,2.476E-006,-0.1256,
20,Shear stress ramp up,3.511E+003,329.0,41.28,AFCC_andput_PreconditionedStressRamp (3),49.80,-3.87510,2.215E-004,9.416E-003,42.50,-3.059,-3.875E-004,2.215E-006,-0.1230,
21,Shear stress ramp up,3.512E+003,330.6,42.92,AFCC_andput_PreconditionedStressRamp (3),49.83,-2.70283,2.271E-004,0.01011,44.53,0.7898,-2.703E-004,2.271E-006,-0.1489,
22,Shear stress ramp up,3.514E+003,332.3,44.57,AFCC_andput_PreconditionedStressRamp (3),49.86,-3.77159,2.614E-004,0.01086,41.55,-7.355,-3.772E-004,2.614E-006,-0.1246,
23,Shear stress ramp up,3.515E+003,333.9,46.21,AFCC_andput_PreconditionedStressRamp (3),49.88,-3.21385,3.387E-004,0.01167,34.45,2.817,-3.214E-004,3.387E-006,-0.1412,
24,Shear stress ramp up,3.517E+003,335.6,47.86,AFCC_andput_PreconditionedStressRamp (3),49.91,-3.64515,3.648E-004,0.01253,34.35,376.9,-3.645E-004,3.648E-006,-0.1245,
25,Shear stress ramp up,3.519E+003,337.2,49.50,AFCC_andput_PreconditionedStressRamp (3),49.94,-3.56334,3.519E-004,0.01346,38.25,16.25,-3.563E-004,3.519E-006,-0.1128,
26,Shear stress ramp up,3.520E+003,338.8,51.15,AFCC_andput_PreconditionedStressRamp (3),49.97,-3.56755,3.241E-004,0.01446,44.62,16.40,-3.568E-004,3.241E-006,-0.1239,
27,Shear stress ramp up,3.522E+003,340.5,52.79,AFCC_andput_PreconditionedStressRamp (3),49.99,-3.52821,2.820E-004,0.01553,55.07,9.999,-3.528E-004,2.820E-006,-0.1166,
28,Shear stress ramp up,3.524E+003,342.1,54.44,AFCC_andput_PreconditionedStressRamp (3),50.01,-3.46875,2.683E-004,0.01668,62.19,6.616,-3.469E-004,2.683E-006,-0.1228,
29,Shear stress ramp up,3.525E+003,343.8,56.08,AFCC_andput_PreconditionedStressRamp (3),50.04,-3.44315,3.097E-004,0.01792,57.87,6.934,-3.443E-004,3.097E-006,-0.1183,
30,Shear stress ramp up,3.527E+003,345.4,57.73,AFCC_andput_PreconditionedStressRamp (3),50.06,-3.38821,2.192E-004,0.01925,87.81,4.012,-3.388E-004,2.192E-006,-0.1230,
31,Shear stress ramp up,3.529E+003,347.1,59.37,AFCC_andput_PreconditionedStressRamp (3),50.08,-3.31049,3.646E-004,0.02068,56.71,5.317,-3.310E-004,3.646E-006,-0.1158,
32,Shear stress ramp up,3.530E+003,348.7,61.02,AFCC_andput_PreconditionedStressRamp (3),50.10,-3.27376,2.293E-004,0.02221,96.84,3.117,-3.274E-004,2.293E-006,-0.1236,
33,Shear stress ramp up,3.532E+003,350.4,62.66,AFCC_andput_PreconditionedStressRamp (3),50.12,-2.54235,3.996E-004,0.02385,59.69,1.901,-2.542E-004,3.996E-006,-0.1375,
34,Shear stress ramp up,3.534E+003,352.0,64.31,AFCC_andput_PreconditionedStressRamp (3),50.13,-3.15999,2.839E-004,0.02562,90.25,3.152,-3.160E-004,2.839E-006,-0.1230,
35,Shear stress ramp up,3.535E+003,353.6,65.95,AFCC_andput_PreconditionedStressRamp (3),50.14,-3.11077,3.193E-004,0.02752,86.20,3.318,-3.111E-004,3.193E-006,-0.1237,
36,Shear stress ramp up,3.537E+003,355.3,67.59,AFCC_andput_PreconditionedStressRamp (3),50.16,-3.06921,3.212E-004,0.02956,92.02,3.191,-3.069E-004,3.212E-006,-0.1209,
37,Shear stress ramp up,3.539E+003,356.9,69.24,AFCC_andput_PreconditionedStressRamp (3),50.17,-3.03387,3.161E-004,0.03175,100.5,3.044,-3.034E-004,3.161E-006,-0.1232,
38,Shear stress ramp up,3.540E+003,358.6,70.88,AFCC_andput_PreconditionedStressRamp (3),50.18,-2.50986,2.562E-004,0.03411,133.1,1.369,-2.510E-004,2.562E-006,-0.1522,
39,Shear stress ramp up,3.542E+003,360.2,72.53,AFCC_andput_PreconditionedStressRamp (3),50.19,-2.90676,3.138E-004,0.03664,116.8,2.643,-2.907E-004,3.138E-006,-0.1238,
40,Shear stress ramp up,3.543E+003,361.9,74.17,AFCC_andput_PreconditionedStressRamp (3),50.20,-2.86420,2.694E-004,0.03935,146.1,2.202,-2.864E-004,2.694E-006,-0.1261,
41,Shear stress ramp up,3.545E+003,363.5,75.82,AFCC_andput_PreconditionedStressRamp (3),50.20,-2.82933,1.688E-004,0.04227,250.4,1.355,-2.829E-004,1.688E-006,-0.1261,
42,Shear stress ramp up,3.547E+003,365.2,77.46,AFCC_andput_PreconditionedStressRamp (3),50.21,-2.78558,3.377E-004,0.04540,134.4,2.638,-2.786E-004,3.377E-006,-0.1233,
43,Shear stress ramp up,3.548E+003,366.8,79.11,AFCC_andput_PreconditionedStressRamp (3),50.21,-2.75616,2.234E-004,0.04876,218.3,1.729,-2.756E-004,2.234E-006,-0.1265,
44,Shear stress ramp up,3.550E+003,368.4,80.75,AFCC_andput_PreconditionedStressRamp (3),50.21,-2.70561,1.299E-004,0.05238,403.3,0.9738,-2.706E-004,1.299E-006,-0.1279,
45,Shear stress ramp up,3.552E+003,370.1,82.40,AFCC_andput_PreconditionedStressRamp (3),50.21,-2.68427,1.978E-004,0.05626,284.5,1.484,-2.684E-004,1.978E-006,-0.1291,
46,Shear stress ramp up,3.553E+003,371.7,84.04,AFCC_andput_PreconditionedStressRamp (3),50.21,-2.60564,2.664E-004,0.06043,226.8,1.890,-2.606E-004,2.664E-006,-0.1244,
47,Shear stress ramp up,3.555E+003,373.4,85.69,AFCC_andput_PreconditionedStressRamp (3),50.21,-2.57861,2.047E-004,0.06491,317.1,1.447,-2.579E-004,2.047E-006,-0.1279,
48,Shear stress ramp up,3.557E+003,375.0,87.33,AFCC_andput_PreconditionedStressRamp (3),50.20,-2.56739,2.770E-004,0.06972,251.7,1.980,-2.567E-004,2.770E-006,-0.1288,
49,Shear stress ramp up,3.558E+003,376.7,88.98,AFCC_andput_PreconditionedStressRamp (3),50.20,-2.54540,2.139E-004,0.07489,350.0,1.531,-2.545E-004,2.139E-006,-0.1293,
50,Shear stress ramp up,3.560E+003,378.3,90.62,AFCC_andput_PreconditionedStressRamp (3),50.20,-2.52654,1.354E-004,0.08045,594.0,0.9725,-2.527E-004,1.354E-006,-0.1295,
51,Shear stress ramp up,3.562E+003,380.0,92.27,AFCC_andput_PreconditionedStressRamp (3),50.19,-2.47022,1.457E-004,0.08641,593.1,1.017,-2.470E-004,1.457E-006,-0.1151,
52,Shear stress ramp up,3.563E+003,381.6,93.91,AFCC_andput_PreconditionedStressRamp (3),50.18,-2.44435,2.085E-004,0.09281,445.1,1.452,-2.444E-004,2.085E-006,-0.1256,
53,Shear stress ramp up,3.565E+003,383.3,95.56,AFCC_andput_PreconditionedStressRamp (3),50.18,-2.40106,1.994E-004,0.09969,499.8,1.367,-2.401E-004,1.994E-006,-0.1246,
54,Shear stress ramp up,3.566E+003,384.9,97.20,AFCC_andput_PreconditionedStressRamp (3),50.17,-2.37206,1.885E-004,0.1071,568.0,1.287,-2.372E-004,1.885E-006,-0.1246,
55,Shear stress ramp up,3.568E+003,386.5,98.84,AFCC_andput_PreconditionedStressRamp (3),50.16,-2.36514,1.604E-004,0.1150,717.1,1.110,-2.365E-004,1.604E-006,-0.1247,
56,Shear stress ramp up,3.570E+003,388.2,100.5,AFCC_andput_PreconditionedStressRamp (3),50.15,-2.35350,1.082E-004,0.1235,1.142E+003,0.7558,-2.354E-004,1.082E-006,-0.1250,
57,Shear stress ramp up,3.571E+003,389.8,102.1,AFCC_andput_PreconditionedStressRamp (3),50.14,-2.33486,1.456E-004,0.1327,911.5,1.020,-2.335E-004,1.456E-006,-0.1255,
58,Shear stress ramp up,3.573E+003,391.5,103.8,AFCC_andput_PreconditionedStressRamp (3),50.13,-2.30710,1.256E-004,0.1425,1.135E+003,0.8776,-2.307E-004,1.256E-006,-0.1256,
59,Shear stress ramp up,3.575E+003,393.1,105.4,AFCC_andput_PreconditionedStressRamp (3),50.12,-2.27059,1.199E-004,0.1531,1.277E+003,0.8296,-2.271E-004,1.199E-006,-0.1251,
60,Shear stress ramp up,3.576E+003,394.8,107.1,AFCC_andput_PreconditionedStressRamp (3),50.11,-2.22264,2.083E-004,0.1644,789.3,1.418,-2.223E-004,2.083E-006,-0.1218,
61,Shear stress ramp up,3.578E+003,396.4,108.7,AFCC_andput_PreconditionedStressRamp (3),50.10,-2.18502,2.231E-004,0.1766,791.8,1.504,-2.185E-004,2.231E-006,-0.1241,
62,Shear stress ramp up,3.580E+003,398.1,110.4,AFCC_andput_PreconditionedStressRamp (3),50.09,-2.14353,2.294E-004,0.1897,827.0,1.529,-2.144E-004,2.294E-006,-0.1246,
63,Shear stress ramp up,3.581E+003,399.7,112.0,AFCC_andput_PreconditionedStressRamp (3),50.08,-2.11343,2.169E-004,0.2038,939.8,1.440,-2.113E-004,2.169E-006,-0.1252,
64,Shear stress ramp up,3.583E+003,401.3,113.6,AFCC_andput_PreconditionedStressRamp (3),50.07,-2.11806,1.805E-004,0.2189,1.213E+003,1.222,-2.118E-004,1.805E-006,-0.1263,
65,Shear stress ramp up,3.585E+003,403.0,115.3,AFCC_andput_PreconditionedStressRamp (3),50.06,-2.06641,1.329E-004,0.2351,1.769E+003,0.8840,-2.066E-004,1.329E-006,-0.1277,
66,Shear stress ramp up,3.586E+003,404.6,116.9,AFCC_andput_PreconditionedStressRamp (3),50.05,-2.03808,1.899E-004,0.2525,1.330E+003,1.260,-2.038E-004,1.899E-006,-0.1272,
67,Shear stress ramp up,3.588E+003,406.3,118.6,AFCC_andput_PreconditionedStressRamp (3),50.03,-1.99028,1.907E-004,0.2713,1.423E+003,1.248,-1.990E-004,1.907E-006,-0.1281,
68,Shear stress ramp up,3.589E+003,407.9,120.2,AFCC_andput_PreconditionedStressRamp (3),50.02,-1.96914,1.930E-004,0.2914,1.509E+003,1.266,-1.969E-004,1.930E-006,-0.1296,
69,Shear stress ramp up,3.591E+003,409.6,121.9,AFCC_andput_PreconditionedStressRamp (3),50.02,-1.94536,1.929E-004,0.3130,1.623E+003,1.266,-1.945E-004,1.929E-006,-0.1303,
70,Shear stress ramp up,3.593E+003,411.2,123.5,AFCC_andput_PreconditionedStressRamp (3),50.01,-1.91954,1.889E-004,0.3362,1.780E+003,1.240,-1.920E-004,1.889E-006,-0.1308,
71,Shear stress ramp up,3.594E+003,412.9,125.2,AFCC_andput_PreconditionedStressRamp (3),50.00,-1.85809,2.398E-004,0.3611,1.506E+003,1.541,-1.858E-004,2.398E-006,-0.1266,
72,Shear stress ramp up,3.596E+003,414.5,126.8,AFCC_andput_PreconditionedStressRamp (3),49.99,-1.79430,2.497E-004,0.3879,1.553E+003,1.573,-1.794E-004,2.497E-006,-0.1304,
73,Shear stress ramp up,3.598E+003,416.1,128.4,AFCC_andput_PreconditionedStressRamp (3),49.98,-1.76386,2.558E-004,0.4166,1.629E+003,1.607,-1.764E-004,2.558E-006,-0.1317,
74,Shear stress ramp up,3.599E+003,417.8,130.1,AFCC_andput_PreconditionedStressRamp (3),49.98,-1.73458,2.497E-004,0.4475,1.792E+003,1.566,-1.735E-004,2.497E-006,-0.1310,
75,Shear stress ramp up,3.601E+003,419.4,131.7,AFCC_andput_PreconditionedStressRamp (3),49.97,-1.67122,2.405E-004,0.4807,1.999E+003,1.480,-1.671E-004,2.405E-006,-0.1304,
76,Shear stress ramp up,3.603E+003,421.1,133.4,AFCC_andput_PreconditionedStressRamp (3),49.96,-1.60344,2.302E-004,0.5163,2.243E+003,1.388,-1.603E-004,2.302E-006,-0.1306,
77,Shear stress ramp up,3.604E+003,422.7,135.0,AFCC_andput_PreconditionedStressRamp (3),49.96,-1.55913,2.900E-004,0.5546,1.912E+003,1.735,-1.559E-004,2.900E-006,-0.1312,
78,Shear stress ramp up,3.606E+003,424.4,136.7,AFCC_andput_PreconditionedStressRamp (3),49.95,-1.52140,3.144E-004,0.5957,1.895E+003,1.871,-1.521E-004,3.144E-006,-0.1322,
79,Shear stress ramp up,3.608E+003,426.0,138.3,AFCC_andput_PreconditionedStressRamp (3),49.95,-1.41732,3.771E-004,0.6398,1.697E+003,2.168,-1.417E-004,3.771E-006,-0.1258,
80,Shear stress ramp up,3.609E+003,427.7,140.0,AFCC_andput_PreconditionedStressRamp (3),49.95,-1.36237,3.844E-004,0.6873,1.788E+003,2.184,-1.362E-004,3.844E-006,-0.1298,
81,Shear stress ramp up,3.611E+003,429.3,141.6,AFCC_andput_PreconditionedStressRamp (3),49.94,-1.29506,3.821E-004,0.7382,1.932E+003,2.136,-1.295E-004,3.821E-006,-0.1306,
82,Shear stress ramp up,3.613E+003,430.9,143.3,AFCC_andput_PreconditionedStressRamp (3),49.94,-1.24018,3.742E-004,0.7929,2.119E+003,2.070,-1.240E-004,3.742E-006,-0.1309,
83,Shear stress ramp up,3.614E+003,432.6,144.9,AFCC_andput_PreconditionedStressRamp (3),49.94,-1.18719,3.633E-004,0.8517,2.344E+003,1.991,-1.187E-004,3.633E-006,-0.1307,
84,Shear stress ramp up,3.616E+003,434.2,146.5,AFCC_andput_PreconditionedStressRamp (3),49.94,-1.11110,3.458E-004,0.9148,2.646E+003,1.860,-1.111E-004,3.458E-006,-0.1312,
85,Shear stress ramp up,3.617E+003,435.9,148.2,AFCC_andput_PreconditionedStressRamp (3),49.94,-1.01931,4.191E-004,0.9826,2.344E+003,2.202,-1.019E-004,4.191E-006,-0.1219,
86,Shear stress ramp up,3.619E+003,437.5,149.8,AFCC_andput_PreconditionedStressRamp (3),49.94,-0.936317,4.459E-004,1.055,2.367E+003,2.298,-9.363E-005,4.459E-006,-0.1278,
87,Shear stress ramp up,3.621E+003,439.2,151.5,AFCC_andput_PreconditionedStressRamp (3),49.94,-0.849082,4.640E-004,1.134,2.443E+003,2.344,-8.491E-005,4.640E-006,-0.1293,
88,Shear stress ramp up,3.622E+003,440.8,153.1,AFCC_andput_PreconditionedStressRamp (3),49.94,-0.789278,4.738E-004,1.218,2.570E+003,2.371,-7.893E-005,4.738E-006,-0.1299,
89,Shear stress ramp up,3.624E+003,442.5,154.8,AFCC_andput_PreconditionedStressRamp (3),49.94,-0.694969,4.729E-004,1.308,2.766E+003,2.317,-6.950E-005,4.729E-006,-0.1304,
90,Shear stress ramp up,3.626E+003,444.1,156.4,AFCC_andput_PreconditionedStressRamp (3),49.94,-0.547979,4.833E-004,1.405,2.907E+003,2.282,-5.480E-005,4.833E-006,-0.1197,
91,Shear stress ramp up,3.627E+003,445.8,158.1,AFCC_andput_PreconditionedStressRamp (3),49.94,-0.513408,5.250E-004,1.509,2.874E+003,2.479,-5.134E-005,5.250E-006,-0.1302,
92,Shear stress ramp up,3.629E+003,447.4,159.7,AFCC_andput_PreconditionedStressRamp (3),49.94,-0.387656,5.562E-004,1.621,2.914E+003,2.553,-3.877E-005,5.562E-006,-0.1322,
93,Shear stress ramp up,3.631E+003,449.0,161.3,AFCC_andput_PreconditionedStressRamp (3),49.94,-0.302052,5.797E-004,1.741,3.003E+003,2.621,-3.021E-005,5.797E-006,-0.1337,
94,Shear stress ramp up,3.632E+003,450.7,163.0,AFCC_andput_PreconditionedStressRamp (3),49.95,-0.170010,6.042E-004,1.870,3.095E+003,2.656,-1.700E-005,6.042E-006,-0.1341,
95,Shear stress ramp up,3.634E+003,452.3,164.6,AFCC_andput_PreconditionedStressRamp (3),49.95,-0.0436925,6.412E-004,2.009,3.133E+003,2.750,-4.369E-006,6.412E-006,-0.1281,
96,Shear stress ramp up,3.636E+003,454.0,166.3,AFCC_andput_PreconditionedStressRamp (3),49.95,0.0808269,6.827E-004,2.158,3.161E+003,2.860,8.083E-006,6.827E-006,-0.1324,
97,Shear stress ramp up,3.637E+003,455.6,167.9,AFCC_andput_PreconditionedStressRamp (3),49.96,0.191148,7.168E-004,2.318,3.233E+003,2.948,1.911E-005,7.168E-006,-0.1330,
98,Shear stress ramp up,3.639E+003,457.3,169.6,AFCC_andput_PreconditionedStressRamp (3),49.96,0.332745,7.454E-004,2.489,3.340E+003,2.987,3.327E-005,7.454E-006,-0.1331,
99,Shear stress ramp up,3.640E+003,458.9,171.2,AFCC_andput_PreconditionedStressRamp (3),49.96,0.566288,7.755E-004,2.674,3.448E+003,2.966,5.663E-005,7.755E-006,-0.1192,
100,Shear stress ramp up,3.642E+003,460.6,172.9,AFCC_andput_PreconditionedStressRamp (3),49.97,0.656120,8.302E-004,2.872,3.459E+003,3.140,6.561E-005,8.302E-006,-0.1310,
101,Shear stress ramp up,3.644E+003,462.2,174.5,AFCC_andput_PreconditionedStressRamp (3),49.97,0.822601,8.861E-004,3.085,3.481E+003,3.259,8.226E-005,8.861E-006,-0.1326,
102,Shear stress ramp up,3.645E+003,463.8,176.1,AFCC_andput_PreconditionedStressRamp (3),49.98,0.972287,9.338E-004,3.314,3.549E+003,3.357,9.723E-005,9.338E-006,-0.1347,
103,Shear stress ramp up,3.647E+003,465.5,177.8,AFCC_andput_PreconditionedStressRamp (3),49.98,1.14456,9.711E-004,3.559,3.665E+003,3.399,1.145E-004,9.711E-006,-0.1885,
104,Shear stress ramp up,3.649E+003,467.1,179.4,AFCC_andput_PreconditionedStressRamp (3),49.99,1.38915,1.044E-003,3.823,3.661E+003,3.511,1.389E-004,1.044E-005,-0.1327,
105,Shear stress ramp up,3.650E+003,468.8,181.1,AFCC_andput_PreconditionedStressRamp (3),49.99,1.61095,1.107E-003,4.106,3.711E+003,3.599,1.611E-004,1.107E-005,-0.1374,
106,Shear stress ramp up,3.652E+003,470.4,182.7,AFCC_andput_PreconditionedStressRamp (3),49.99,1.82084,1.195E-003,4.411,3.691E+003,3.773,1.821E-004,1.195E-005,-0.1382,
107,Shear stress ramp up,3.654E+003,472.1,184.4,AFCC_andput_PreconditionedStressRamp (3),50.00,2.04111,1.259E-003,4.738,3.764E+003,3.857,2.041E-004,1.259E-005,-0.1388,
108,Shear stress ramp up,3.655E+003,473.7,186.0,AFCC_andput_PreconditionedStressRamp (3),50.00,2.27174,1.285E-003,5.089,3.961E+003,3.819,2.272E-004,1.285E-005,-0.1253,
109,Shear stress ramp up,3.657E+003,475.4,187.7,AFCC_andput_PreconditionedStressRamp (3),50.01,2.45778,1.308E-003,5.466,4.179E+003,3.804,2.458E-004,1.308E-005,-0.1323,
110,Shear stress ramp up,3.659E+003,477.0,189.3,AFCC_andput_PreconditionedStressRamp (3),50.01,2.71373,1.326E-003,5.871,4.429E+003,3.736,2.714E-004,1.326E-005,-0.1324,
111,Shear stress ramp up,3.660E+003,478.6,190.9,AFCC_andput_PreconditionedStressRamp (3),50.01,2.95954,1.367E-003,6.307,4.614E+003,3.742,2.960E-004,1.367E-005,-0.1327,
112,Shear stress ramp up,3.662E+003,480.3,192.6,AFCC_andput_PreconditionedStressRamp (3),50.02,3.18118,1.409E-003,6.774,4.807E+003,3.766,3.181E-004,1.409E-005,-0.1925,
113,Shear stress ramp up,3.664E+003,481.9,194.2,AFCC_andput_PreconditionedStressRamp (3),50.02,3.59061,1.539E-003,7.276,4.728E+003,3.916,3.591E-004,1.539E-005,-0.1305,
114,Shear stress ramp up,3.665E+003,483.6,195.9,AFCC_andput_PreconditionedStressRamp (3),50.02,3.87282,1.647E-003,7.815,4.744E+003,4.071,3.873E-004,1.647E-005,-0.1337,
115,Shear stress ramp up,3.667E+003,485.2,197.5,AFCC_andput_PreconditionedStressRamp (3),50.03,4.18408,1.777E-003,8.394,4.724E+003,4.254,4.184E-004,1.777E-005,-0.1343,
116,Shear stress ramp up,3.668E+003,486.9,199.2,AFCC_andput_PreconditionedStressRamp (3),50.03,4.54890,1.876E-003,9.017,4.806E+003,4.329,4.549E-004,1.876E-005,-0.1342,
117,Shear stress ramp up,3.670E+003,488.5,200.8,AFCC_andput_PreconditionedStressRamp (3),50.03,4.98038,1.943E-003,9.685,4.984E+003,4.297,4.980E-004,1.943E-005,-0.1170,
118,Shear stress ramp up,3.672E+003,490.2,202.5,AFCC_andput_PreconditionedStressRamp (3),50.03,5.38588,2.085E-003,10.40,4.990E+003,4.441,5.386E-004,2.085E-005,-0.1325,
119,Shear stress ramp up,3.673E+003,491.8,204.1,AFCC_andput_PreconditionedStressRamp (3),50.04,5.84685,2.275E-003,11.17,4.913E+003,4.649,5.847E-004,2.275E-005,-0.1355,
120,Shear stress ramp up,3.675E+003,493.4,205.8,AFCC_andput_PreconditionedStressRamp (3),50.04,6.34144,2.493E-003,12.00,4.814E+003,4.885,6.341E-004,2.493E-005,-0.1363,
121,Shear stress ramp up,3.677E+003,495.1,207.4,AFCC_andput_PreconditionedStressRamp (3),50.04,6.88577,2.733E-003,12.89,4.718E+003,5.119,6.886E-004,2.733E-005,-0.1365,
122,Shear stress ramp up,3.678E+003,496.7,209.0,AFCC_andput_PreconditionedStressRamp (3),50.04,7.61649,2.939E-003,13.85,4.712E+003,5.192,7.616E-004,2.939E-005,-0.1168,
123,Shear stress ramp up,3.680E+003,498.4,210.7,AFCC_andput_PreconditionedStressRamp (3),50.04,8.26302,3.265E-003,14.87,4.555E+003,5.501,8.263E-004,3.265E-005,-0.1326,
124,Shear stress ramp up,3.682E+003,500.0,212.3,AFCC_andput_PreconditionedStressRamp (3),50.04,8.98557,3.656E-003,15.98,4.370E+003,5.854,8.986E-004,3.656E-005,-0.1341,
125,Shear stress ramp up,3.683E+003,501.7,214.0,AFCC_andput_PreconditionedStressRamp (3),50.04,9.77368,4.030E-003,17.16,4.259E+003,6.123,9.774E-004,4.030E-005,-0.1360,
126,Shear stress ramp up,3.685E+003,503.3,215.6,AFCC_andput_PreconditionedStressRamp (3),50.04,10.6162,4.376E-003,18.43,4.212E+003,6.307,1.062E-003,4.376E-005,-0.1368,
127,Shear stress ramp up,3.687E+003,505.0,217.3,AFCC_andput_PreconditionedStressRamp (3),50.04,11.4198,4.657E-003,19.80,4.252E+003,6.404,1.142E-003,4.657E-005,-0.1383,
128,Shear stress ramp up,3.688E+003,506.6,218.9,AFCC_andput_PreconditionedStressRamp (3),50.04,12.3841,4.775E-003,21.27,4.453E+003,6.221,1.238E-003,4.775E-005,-0.1320,
129,Shear stress ramp up,3.690E+003,508.3,220.6,AFCC_andput_PreconditionedStressRamp (3),50.04,13.2505,5.057E-003,22.84,4.518E+003,6.300,1.325E-003,5.057E-005,-0.1391,
130,Shear stress ramp up,3.691E+003,509.9,222.2,AFCC_andput_PreconditionedStressRamp (3),50.04,14.1994,5.269E-003,24.54,4.657E+003,6.264,1.420E-003,5.269E-005,-0.1404,
131,Shear stress ramp up,3.693E+003,511.5,223.8,AFCC_andput_PreconditionedStressRamp (3),50.04,15.2102,5.487E-003,26.35,4.803E+003,6.220,1.521E-003,5.487E-005,-0.1412,
132,Shear stress ramp up,3.695E+003,513.2,225.5,AFCC_andput_PreconditionedStressRamp (3),50.04,16.3824,5.788E-003,28.31,4.891E+003,6.226,1.638E-003,5.788E-005,-0.1422,
133,Shear stress ramp up,3.696E+003,514.8,227.1,AFCC_andput_PreconditionedStressRamp (3),50.04,17.7015,6.225E-003,30.41,4.885E+003,6.329,1.770E-003,6.225E-005,-0.1432,
134,Shear stress ramp up,3.698E+003,516.5,228.8,AFCC_andput_PreconditionedStressRamp (3),50.04,19.3276,6.740E-003,32.66,4.846E+003,6.417,1.933E-003,6.740E-005,-0.1302,
135,Shear stress ramp up,3.700E+003,518.1,230.4,AFCC_andput_PreconditionedStressRamp (3),50.04,20.7600,7.625E-003,35.08,4.601E+003,6.885,2.076E-003,7.625E-005,-0.1383,
136,Shear stress ramp up,3.701E+003,519.8,232.1,AFCC_andput_PreconditionedStressRamp (3),50.04,22.3783,8.405E-003,37.68,4.484E+003,7.170,2.238E-003,8.405E-005,-0.1390,
137,Shear stress ramp up,3.703E+003,521.4,233.7,AFCC_andput_PreconditionedStressRamp (3),50.04,24.3439,9.188E-003,40.48,4.405E+003,7.342,2.434E-003,9.188E-005,-0.1398,
138,Shear stress ramp up,3.705E+003,523.1,235.4,AFCC_andput_PreconditionedStressRamp (3),50.04,26.8317,0.01024,43.48,4.244E+003,7.573,2.683E-003,1.024E-004,-0.1419,
139,Shear stress ramp up,3.706E+003,524.7,237.0,AFCC_andput_PreconditionedStressRamp (3),50.04,29.5578,0.01168,46.70,3.997E+003,7.986,2.956E-003,1.168E-004,-0.1436,
140,Shear stress ramp up,3.708E+003,526.3,238.6,AFCC_andput_PreconditionedStressRamp (3),50.03,31.6890,0.01304,50.16,3.846E+003,8.438,3.169E-003,1.304E-004,-0.2140,
141,Shear stress ramp up,3.710E+003,528.0,240.3,AFCC_andput_PreconditionedStressRamp (3),50.03,36.2357,0.01533,53.88,3.514E+003,8.852,3.624E-003,1.533E-004,-0.1421,
142,Shear stress ramp up,3.711E+003,529.6,241.9,AFCC_andput_PreconditionedStressRamp (3),50.03,39.9372,0.01773,57.87,3.264E+003,9.434,3.994E-003,1.773E-004,-0.1443,
143,Shear stress ramp up,3.713E+003,531.3,243.6,AFCC_andput_PreconditionedStressRamp (3),50.03,45.0353,0.02026,62.16,3.069E+003,9.718,4.504E-003,2.026E-004,-0.1463,
144,Shear stress ramp up,3.714E+003,532.9,245.2,AFCC_andput_PreconditionedStressRamp (3),50.03,50.3582,0.02350,66.77,2.841E+003,10.23,5.036E-003,2.350E-004,-0.1488,
145,Shear stress ramp up,3.716E+003,534.6,246.9,AFCC_andput_PreconditionedStressRamp (3),50.03,56.6524,0.02734,71.72,2.624E+003,10.74,5.665E-003,2.734E-004,-0.1522,
146,Shear stress ramp up,3.718E+003,536.2,248.5,AFCC_andput_PreconditionedStressRamp (3),50.03,64.7541,0.03169,77.04,2.431E+003,11.05,6.475E-003,3.169E-004,-0.1546,
147,Shear stress ramp up,3.719E+003,537.9,250.2,AFCC_andput_PreconditionedStressRamp (3),50.02,72.3220,0.03694,82.70,2.239E+003,11.68,7.232E-003,3.694E-004,-0.2181,
148,Shear stress ramp up,3.721E+003,539.5,251.8,AFCC_andput_PreconditionedStressRamp (3),50.02,82.0661,0.04280,87.88,2.053E+003,12.07,8.207E-003,4.280E-004,-0.1520,
149,Shear stress ramp up,3.723E+003,541.1,253.5,AFCC_andput_PreconditionedStressRamp (3),50.02,88.2957,0.04637,92.23,1.989E+003,12.28,8.830E-003,4.637E-004,-0.1552,
150,Shear stress ramp up,3.724E+003,542.8,255.1,AFCC_andput_PreconditionedStressRamp (3),50.02,93.3415,0.04670,95.68,2.049E+003,11.80,9.334E-003,4.670E-004,-0.1554,
151,Shear stress ramp up,3.726E+003,544.4,256.7,AFCC_andput_PreconditionedStressRamp (3),50.02,98.5117,0.04367,98.18,2.248E+003,10.55,9.851E-003,4.367E-004,-0.1555,
152,Shear stress ramp up,3.728E+003,546.1,258.4,AFCC_andput_PreconditionedStressRamp (3),50.01,102.360,0.03823,99.63,2.606E+003,8.955,0.01024,3.823E-004,-0.1552,
153,Shear stress ramp up,3.729E+003,547.7,260.0,AFCC_andput_PreconditionedStressRamp (3),50.01,106.055,0.03217,100.0,3.108E+003,7.332,0.01061,3.217E-004,-0.1557,
1,Shear stress ramp down,3.739E+003,557.9,10.00,AFCC_andput_PreconditionedStressRamp (3),50.00,15.6577,0.01604,100.0,6.233E+003,1.025,1.566E-003,1.604E-004,-0.1553,
2,Shear stress ramp down,3.741E+003,559.6,11.68,AFCC_andput_PreconditionedStressRamp (3),50.00,16.4469,0.01690,99.43,5.884E+003,3.965,1.645E-003,1.690E-004,-0.1528,
3,Shear stress ramp down,3.743E+003,561.2,13.33,AFCC_andput_PreconditionedStressRamp (3),50.00,16.6500,0.01846,97.76,5.297E+003,6.715,1.665E-003,1.846E-004,-0.1511,
4,Shear stress ramp down,3.744E+003,562.9,14.97,AFCC_andput_PreconditionedStressRamp (3),50.00,16.6784,0.01968,95.06,4.831E+003,10.42,1.668E-003,1.968E-004,-0.1427,
5,Shear stress ramp down,3.746E+003,564.5,16.62,AFCC_andput_PreconditionedStressRamp (3),50.00,16.3695,0.01819,91.43,5.027E+003,19.20,1.637E-003,1.819E-004,-0.1451,
6,Shear stress ramp down,3.748E+003,566.2,18.26,AFCC_andput_PreconditionedStressRamp (3),50.00,15.9633,0.01243,86.91,6.993E+003,47.09,1.596E-003,1.243E-004,-0.1439,
7,Shear stress ramp down,3.749E+003,567.8,19.91,AFCC_andput_PreconditionedStressRamp (3),50.00,15.4739,7.418E-004,81.56,1.099E+005,-2.687,1.547E-003,7.418E-006,-0.1431,
8,Shear stress ramp down,3.751E+003,569.4,21.55,AFCC_andput_PreconditionedStressRamp (3),50.00,14.9317,1.445E-003,75.94,5.257E+004,2.041,1.493E-003,-1.445E-005,-0.1422,
9,Shear stress ramp down,3.753E+003,571.1,23.19,AFCC_andput_PreconditionedStressRamp (3),49.99,14.3468,2.109E-003,70.70,3.352E+004,1.983,1.435E-003,-2.109E-005,-0.1414,
10,Shear stress ramp down,3.754E+003,572.7,24.84,AFCC_andput_PreconditionedStressRamp (3),49.99,13.7826,3.028E-003,65.82,2.174E+004,2.282,1.378E-003,-3.028E-005,-0.1399,
11,Shear stress ramp down,3.756E+003,574.4,26.48,AFCC_andput_PreconditionedStressRamp (3),49.99,13.2322,3.654E-003,61.28,1.677E+004,2.391,1.323E-003,-3.654E-005,-0.1280,
12,Shear stress ramp down,3.758E+003,576.0,28.13,AFCC_andput_PreconditionedStressRamp (3),49.99,12.6538,3.609E-003,57.04,1.581E+004,2.111,1.265E-003,-3.609E-005,-0.1344,
13,Shear stress ramp down,3.759E+003,577.7,29.77,AFCC_andput_PreconditionedStressRamp (3),49.99,12.1302,3.476E-003,53.11,1.528E+004,1.897,1.213E-003,-3.476E-005,-0.1347,
14,Shear stress ramp down,3.761E+003,579.3,31.42,AFCC_andput_PreconditionedStressRamp (3),49.99,11.5813,3.292E-003,49.45,1.502E+004,1.690,1.158E-003,-3.292E-005,-0.1343,
15,Shear stress ramp down,3.763E+003,581.0,33.06,AFCC_andput_PreconditionedStressRamp (3),49.99,11.0477,3.097E-003,46.03,1.486E+004,1.518,1.105E-003,-3.097E-005,-0.1339,
16,Shear stress ramp down,3.764E+003,582.6,34.71,AFCC_andput_PreconditionedStressRamp (3),49.99,10.5398,2.900E-003,42.86,1.478E+004,1.374,1.054E-003,-2.900E-005,-0.1344,
17,Shear stress ramp down,3.766E+003,584.3,36.35,AFCC_andput_PreconditionedStressRamp (3),49.99,10.0409,3.237E-003,39.90,1.233E+004,1.493,1.004E-003,-3.237E-005,-0.1338,
18,Shear stress ramp down,3.767E+003,585.9,38.00,AFCC_andput_PreconditionedStressRamp (3),49.99,9.45083,3.667E-003,37.14,1.013E+004,1.628,9.451E-004,-3.667E-005,-0.1224,
19,Shear stress ramp down,3.769E+003,587.5,39.64,AFCC_andput_PreconditionedStressRamp (3),49.99,8.93018,3.484E-003,34.58,9.927E+003,1.513,8.930E-004,-3.484E-005,-0.1310,
20,Shear stress ramp down,3.771E+003,589.2,41.29,AFCC_andput_PreconditionedStressRamp (3),49.99,8.42320,3.301E-003,32.19,9.752E+003,1.409,8.423E-004,-3.301E-005,-0.1328,
21,Shear stress ramp down,3.772E+003,590.8,42.93,AFCC_andput_PreconditionedStressRamp (3),49.99,7.91566,3.119E-003,29.97,9.610E+003,1.310,7.916E-004,-3.119E-005,-0.1330,
22,Shear stress ramp down,3.774E+003,592.5,44.58,AFCC_andput_PreconditionedStressRamp (3),49.99,7.41642,2.910E-003,27.91,9.591E+003,1.206,7.416E-004,-2.910E-005,-0.1333,
23,Shear stress ramp down,3.776E+003,594.1,46.22,AFCC_andput_PreconditionedStressRamp (3),49.99,6.98287,2.645E-003,25.98,9.823E+003,1.092,6.983E-004,-2.645E-005,-0.1319,
24,Shear stress ramp down,3.777E+003,595.8,47.87,AFCC_andput_PreconditionedStressRamp (3),49.99,4.62729,3.223E-003,24.19,7.505E+003,1.096,4.627E-004,-3.223E-005,-0.2006,
25,Shear stress ramp down,3.779E+003,597.4,49.51,AFCC_andput_PreconditionedStressRamp (3),50.00,6.03048,3.313E-003,22.52,6.797E+003,1.346,6.030E-004,-3.313E-005,-0.1275,
26,Shear stress ramp down,3.781E+003,599.1,51.16,AFCC_andput_PreconditionedStressRamp (3),50.00,5.61418,3.037E-003,20.96,6.902E+003,1.233,5.614E-004,-3.037E-005,-0.1301,
27,Shear stress ramp down,3.782E+003,600.7,52.80,AFCC_andput_PreconditionedStressRamp (3),50.00,5.25453,2.751E-003,19.52,7.096E+003,1.121,5.255E-004,-2.751E-005,-0.1310,
28,Shear stress ramp down,3.784E+003,602.3,54.44,AFCC_andput_PreconditionedStressRamp (3),50.00,4.87563,2.447E-003,18.17,7.425E+003,0.9998,4.876E-004,-2.447E-005,-0.1310,
29,Shear stress ramp down,3.786E+003,604.0,56.09,AFCC_andput_PreconditionedStressRamp (3),50.00,4.53150,2.122E-003,16.92,7.972E+003,0.8714,4.532E-004,-2.122E-005,-0.1313,
30,Shear stress ramp down,3.787E+003,605.6,57.73,AFCC_andput_PreconditionedStressRamp (3),50.00,4.21447,1.838E-003,15.75,8.569E+003,0.7602,4.214E-004,-1.838E-005,-0.1299,
31,Shear stress ramp down,3.789E+003,607.3,59.38,AFCC_andput_PreconditionedStressRamp (3),50.00,3.86052,2.592E-003,14.66,5.656E+003,1.076,3.861E-004,-2.592E-005,-0.1136,
32,Shear stress ramp down,3.790E+003,608.9,61.02,AFCC_andput_PreconditionedStressRamp (3),50.00,3.60574,2.318E-003,13.65,5.889E+003,0.9734,3.606E-004,-2.318E-005,-0.1290,
33,Shear stress ramp down,3.792E+003,610.6,62.67,AFCC_andput_PreconditionedStressRamp (3),50.00,3.36715,2.029E-003,12.71,6.264E+003,0.8626,3.367E-004,-2.029E-005,-0.1297,
34,Shear stress ramp down,3.794E+003,612.2,64.31,AFCC_andput_PreconditionedStressRamp (3),50.00,3.13040,1.730E-003,11.83,6.838E+003,0.7444,3.130E-004,-1.730E-005,-0.1304,
35,Shear stress ramp down,3.795E+003,613.9,65.96,AFCC_andput_PreconditionedStressRamp (3),50.00,2.88881,1.434E-003,11.02,7.680E+003,0.6237,2.889E-004,-1.434E-005,-0.1307,
36,Shear stress ramp down,3.797E+003,615.5,67.60,AFCC_andput_PreconditionedStressRamp (3),50.01,2.68713,1.145E-003,10.26,8.958E+003,0.5046,2.687E-004,-1.145E-005,-0.1320,
37,Shear stress ramp down,3.799E+003,617.1,69.25,AFCC_andput_PreconditionedStressRamp (3),50.01,2.45290,1.428E-003,9.547,6.687E+003,0.6359,2.453E-004,-1.428E-005,-0.1333,
38,Shear stress ramp down,3.800E+003,618.8,70.89,AFCC_andput_PreconditionedStressRamp (3),50.01,2.24050,1.740E-003,8.888,5.109E+003,0.7840,2.241E-004,-1.740E-005,-0.1241,
39,Shear stress ramp down,3.802E+003,620.4,72.54,AFCC_andput_PreconditionedStressRamp (3),50.01,2.03823,1.544E-003,8.275,5.359E+003,0.7040,2.038E-004,-1.544E-005,-0.1294,
40,Shear stress ramp down,3.804E+003,622.1,74.18,AFCC_andput_PreconditionedStressRamp (3),50.01,1.87094,1.337E-003,7.704,5.762E+003,0.6181,1.871E-004,-1.337E-005,-0.1301,
41,Shear stress ramp down,3.805E+003,623.7,75.83,AFCC_andput_PreconditionedStressRamp (3),50.01,1.66128,1.123E-003,7.172,6.385E+003,0.5246,1.661E-004,-1.123E-005,-0.1308,
42,Shear stress ramp down,3.807E+003,625.4,77.47,AFCC_andput_PreconditionedStressRamp (3),50.01,1.50710,9.028E-004,6.677,7.396E+003,0.4275,1.507E-004,-9.028E-006,-0.1317,
43,Shear stress ramp down,3.809E+003,627.0,79.12,AFCC_andput_PreconditionedStressRamp (3),50.01,1.35244,6.777E-004,6.217,9.173E+003,0.3252,1.352E-004,-6.777E-006,-0.1320,
44,Shear stress ramp down,3.810E+003,628.7,80.76,AFCC_andput_PreconditionedStressRamp (3),50.01,-0.502222,1.384E-003,5.788,4.181E+003,0.6026,-5.022E-005,-1.384E-005,-0.2096,
45,Shear stress ramp down,3.812E+003,630.3,82.41,AFCC_andput_PreconditionedStressRamp (3),50.01,1.00974,1.379E-003,5.388,3.907E+003,0.6772,1.010E-004,-1.379E-005,-0.1283,
46,Shear stress ramp down,3.814E+003,631.9,84.05,AFCC_andput_PreconditionedStressRamp (3),50.02,0.872418,1.185E-003,5.016,4.232E+003,0.5898,8.724E-005,-1.185E-005,-0.1307,
47,Shear stress ramp down,3.815E+003,633.6,85.69,AFCC_andput_PreconditionedStressRamp (3),50.02,0.711147,9.783E-004,4.670,4.774E+003,0.4923,7.111E-005,-9.783E-006,-0.1321,
48,Shear stress ramp down,3.817E+003,635.2,87.34,AFCC_andput_PreconditionedStressRamp (3),50.02,0.574128,7.688E-004,4.348,5.655E+003,0.3917,5.741E-005,-7.688E-006,-0.1328,
49,Shear stress ramp down,3.818E+003,636.9,88.98,AFCC_andput_PreconditionedStressRamp (3),50.02,0.452438,5.593E-004,4.048,7.237E+003,0.2887,4.524E-005,-5.593E-006,-0.1344,
50,Shear stress ramp down,3.820E+003,638.5,90.63,AFCC_andput_PreconditionedStressRamp (3),50.02,0.303284,5.590E-004,3.768,6.741E+003,0.2917,3.033E-005,-5.590E-006,-0.1351,
51,Shear stress ramp down,3.822E+003,640.2,92.27,AFCC_andput_PreconditionedStressRamp (3),50.02,-1.59295,1.219E-003,3.508,2.879E+003,0.5780,-1.593E-004,-1.219E-005,-0.2160,
52,Shear stress ramp down,3.823E+003,641.8,93.92,AFCC_andput_PreconditionedStressRamp (3),50.02,9.63731E-003,1.209E-003,3.266,2.701E+003,0.6446,9.637E-007,-1.209E-005,-0.1316,
53,Shear stress ramp down,3.825E+003,643.5,95.56,AFCC_andput_PreconditionedStressRamp (3),50.02,-0.0832238,1.028E-003,3.041,2.957E+003,0.5555,-8.322E-006,-1.028E-005,-0.1345,
54,Shear stress ramp down,3.827E+003,645.1,97.21,AFCC_andput_PreconditionedStressRamp (3),50.02,-0.206162,8.260E-004,2.831,3.427E+003,0.4514,-2.062E-005,-8.260E-006,-0.1365,
55,Shear stress ramp down,3.828E+003,646.8,98.85,AFCC_andput_PreconditionedStressRamp (3),50.02,-0.338072,6.121E-004,2.636,4.306E+003,0.3380,-3.381E-005,-6.121E-006,-0.1372,
56,Shear stress ramp down,3.830E+003,648.4,100.5,AFCC_andput_PreconditionedStressRamp (3),50.02,-0.453686,3.929E-004,2.454,6.246E+003,0.2194,-4.537E-005,-3.929E-006,-0.1375,
57,Shear stress ramp down,3.832E+003,650.0,102.1,AFCC_andput_PreconditionedStressRamp (3),50.02,-0.554853,4.256E-004,2.285,5.367E+003,0.2405,-5.549E-005,-4.256E-006,-0.1377,
58,Shear stress ramp down,3.833E+003,651.7,103.8,AFCC_andput_PreconditionedStressRamp (3),50.02,-0.663460,6.893E-004,2.127,3.086E+003,0.3938,-6.635E-005,-6.893E-006,-0.1377,
59,Shear stress ramp down,3.835E+003,653.3,105.4,AFCC_andput_PreconditionedStressRamp (3),50.02,-0.813762,1.121E-003,1.980,1.766E+003,0.6459,-8.138E-005,-1.121E-005,-0.1300,
60,Shear stress ramp down,3.835E+003,653.3,105.4,AFCC_andput_PreconditionedStressRamp (3),50.02,-0.813762,1.121E-003,1.980,1.766E+003,0.6459,-8.138E-005,-1.121E-005,-0.1300,K003
